<?xml version="1.0" encoding="UTF-8" standalone="no"?>
<svg
   xmlns:dc="http://purl.org/dc/elements/1.1/"
   xmlns:cc="http://creativecommons.org/ns#"
   xmlns:rdf="http://www.w3.org/1999/02/22-rdf-syntax-ns#"
   xmlns:svg="http://www.w3.org/2000/svg"
   xmlns="http://www.w3.org/2000/svg"
   xmlns:xlink="http://www.w3.org/1999/xlink"
   xmlns:sodipodi="http://sodipodi.sourceforge.net/DTD/sodipodi-0.dtd"
   xmlns:inkscape="http://www.inkscape.org/namespaces/inkscape"
   width="119.3926mm"
   height="142.82278mm"
   viewBox="0 0 119.3926 142.82278"
   version="1.1"
   id="svg8"
   inkscape:version="1.0.2 (e86c870879, 2021-01-15)"
   sodipodi:docname="chameleon-logo.svg">
  <defs
     id="defs2">
    <inkscape:path-effect
       effect="bspline"
       id="path-effect1150"
       is_visible="true"
       lpeversion="1"
       weight="33.333333"
       steps="2"
       helper_size="0"
       apply_no_weight="true"
       apply_with_weight="true"
       only_selected="false" />
    <inkscape:path-effect
       effect="bspline"
       id="path-effect1146"
       is_visible="true"
       lpeversion="1"
       weight="33.333333"
       steps="2"
       helper_size="0"
       apply_no_weight="true"
       apply_with_weight="true"
       only_selected="false" />
    <inkscape:path-effect
       effect="bspline"
       id="path-effect1107"
       is_visible="true"
       lpeversion="1"
       weight="33.333333"
       steps="2"
       helper_size="0"
       apply_no_weight="true"
       apply_with_weight="true"
       only_selected="false" />
    <inkscape:path-effect
       effect="bspline"
       id="path-effect1103"
       is_visible="true"
       lpeversion="1"
       weight="33.333333"
       steps="2"
       helper_size="0"
       apply_no_weight="true"
       apply_with_weight="true"
       only_selected="false" />
    <inkscape:path-effect
       effect="bspline"
       id="path-effect1099"
       is_visible="true"
       lpeversion="1"
       weight="33.333333"
       steps="2"
       helper_size="0"
       apply_no_weight="true"
       apply_with_weight="true"
       only_selected="false" />
    <inkscape:path-effect
       effect="bspline"
       id="path-effect1095"
       is_visible="true"
       lpeversion="1"
       weight="33.333333"
       steps="2"
       helper_size="0"
       apply_no_weight="true"
       apply_with_weight="true"
       only_selected="false" />
    <inkscape:path-effect
       effect="bspline"
       id="path-effect1087"
       is_visible="true"
       lpeversion="1"
       weight="33.333333"
       steps="2"
       helper_size="0"
       apply_no_weight="true"
       apply_with_weight="true"
       only_selected="false" />
    <inkscape:path-effect
       effect="bspline"
       id="path-effect1083"
       is_visible="true"
       lpeversion="1"
       weight="33.333333"
       steps="2"
       helper_size="0"
       apply_no_weight="true"
       apply_with_weight="true"
       only_selected="false" />
    <inkscape:path-effect
       effect="bspline"
       id="path-effect1079"
       is_visible="true"
       lpeversion="1"
       weight="33.333333"
       steps="2"
       helper_size="0"
       apply_no_weight="true"
       apply_with_weight="true"
       only_selected="false" />
    <inkscape:path-effect
       effect="bspline"
       id="path-effect1075"
       is_visible="true"
       lpeversion="1"
       weight="33.333333"
       steps="2"
       helper_size="0"
       apply_no_weight="true"
       apply_with_weight="true"
       only_selected="false" />
    <inkscape:path-effect
       effect="bspline"
       id="path-effect1071"
       is_visible="true"
       lpeversion="1"
       weight="33.333333"
       steps="2"
       helper_size="0"
       apply_no_weight="true"
       apply_with_weight="true"
       only_selected="false" />
    <inkscape:path-effect
       effect="bspline"
       id="path-effect983"
       is_visible="true"
       lpeversion="1"
       weight="33.333333"
       steps="2"
       helper_size="0"
       apply_no_weight="true"
       apply_with_weight="true"
       only_selected="false" />
    <inkscape:path-effect
       effect="bspline"
       id="path-effect979"
       is_visible="true"
       lpeversion="1"
       weight="33.333333"
       steps="2"
       helper_size="0"
       apply_no_weight="true"
       apply_with_weight="true"
       only_selected="false" />
    <inkscape:path-effect
       effect="bspline"
       id="path-effect975"
       is_visible="true"
       lpeversion="1"
       weight="33.333333"
       steps="2"
       helper_size="0"
       apply_no_weight="true"
       apply_with_weight="true"
       only_selected="false" />
    <inkscape:path-effect
       effect="bspline"
       id="path-effect971"
       is_visible="true"
       lpeversion="1"
       weight="33.333333"
       steps="2"
       helper_size="0"
       apply_no_weight="true"
       apply_with_weight="true"
       only_selected="false" />
    <inkscape:path-effect
       effect="bspline"
       id="path-effect967"
       is_visible="true"
       lpeversion="1"
       weight="33.333333"
       steps="2"
       helper_size="0"
       apply_no_weight="true"
       apply_with_weight="true"
       only_selected="false" />
    <inkscape:path-effect
       effect="bspline"
       id="path-effect963"
       is_visible="true"
       lpeversion="1"
       weight="33.333333"
       steps="2"
       helper_size="0"
       apply_no_weight="true"
       apply_with_weight="true"
       only_selected="false" />
    <inkscape:path-effect
       effect="bspline"
       id="path-effect953"
       is_visible="true"
       lpeversion="1"
       weight="33.333333"
       steps="2"
       helper_size="0"
       apply_no_weight="true"
       apply_with_weight="true"
       only_selected="false" />
    <inkscape:path-effect
       effect="bspline"
       id="path-effect949"
       is_visible="true"
       lpeversion="1"
       weight="33.333333"
       steps="2"
       helper_size="0"
       apply_no_weight="true"
       apply_with_weight="true"
       only_selected="false" />
    <inkscape:path-effect
       effect="bspline"
       id="path-effect920"
       is_visible="true"
       lpeversion="1"
       weight="33.333333"
       steps="2"
       helper_size="0"
       apply_no_weight="true"
       apply_with_weight="true"
       only_selected="false" />
    <inkscape:path-effect
       effect="bspline"
       id="path-effect916"
       is_visible="true"
       lpeversion="1"
       weight="33.333333"
       steps="2"
       helper_size="0"
       apply_no_weight="true"
       apply_with_weight="true"
       only_selected="false" />
    <inkscape:path-effect
       effect="bspline"
       id="path-effect912"
       is_visible="true"
       lpeversion="1"
       weight="33.333333"
       steps="2"
       helper_size="0"
       apply_no_weight="true"
       apply_with_weight="true"
       only_selected="false" />
    <inkscape:path-effect
       effect="bspline"
       id="path-effect908"
       is_visible="true"
       lpeversion="1"
       weight="33.333333"
       steps="2"
       helper_size="0"
       apply_no_weight="true"
       apply_with_weight="true"
       only_selected="false" />
    <inkscape:path-effect
       effect="bspline"
       id="path-effect904"
       is_visible="true"
       lpeversion="1"
       weight="33.333333"
       steps="2"
       helper_size="0"
       apply_no_weight="true"
       apply_with_weight="true"
       only_selected="false" />
    <inkscape:path-effect
       effect="bspline"
       id="path-effect900"
       is_visible="true"
       lpeversion="1"
       weight="33.333333"
       steps="2"
       helper_size="0"
       apply_no_weight="true"
       apply_with_weight="true"
       only_selected="false" />
    <inkscape:path-effect
       effect="bspline"
       id="path-effect896"
       is_visible="true"
       lpeversion="1"
       weight="33.333333"
       steps="2"
       helper_size="0"
       apply_no_weight="true"
       apply_with_weight="true"
       only_selected="false" />
    <inkscape:path-effect
       effect="bspline"
       id="path-effect892"
       is_visible="true"
       lpeversion="1"
       weight="33.333333"
       steps="2"
       helper_size="0"
       apply_no_weight="true"
       apply_with_weight="true"
       only_selected="false" />
    <inkscape:path-effect
       effect="bspline"
       id="path-effect888"
       is_visible="true"
       lpeversion="1"
       weight="33.333333"
       steps="2"
       helper_size="0"
       apply_no_weight="true"
       apply_with_weight="true"
       only_selected="false" />
  </defs>
  <sodipodi:namedview
     id="base"
     pagecolor="#ffffff"
     bordercolor="#666666"
     borderopacity="1.0"
     inkscape:pageopacity="0.0"
     inkscape:pageshadow="2"
     inkscape:zoom="2.3101035"
     inkscape:cx="225.62381"
     inkscape:cy="269.90132"
     inkscape:document-units="mm"
     inkscape:current-layer="layer4"
     inkscape:document-rotation="0"
     showgrid="false"
     inkscape:window-width="1969"
     inkscape:window-height="1438"
     inkscape:window-x="0"
     inkscape:window-y="0"
     inkscape:window-maximized="1"
     inkscape:object-nodes="false"
     inkscape:snap-others="false"
     inkscape:snap-nodes="false"
     inkscape:snap-global="false"
     fit-margin-top="0"
     fit-margin-left="0"
     fit-margin-right="0"
     fit-margin-bottom="0" />
  <metadata
     id="metadata5">
    <rdf:RDF>
      <cc:Work
         rdf:about="">
        <dc:format>image/svg+xml</dc:format>
        <dc:type
           rdf:resource="http://purl.org/dc/dcmitype/StillImage" />
        <dc:title></dc:title>
      </cc:Work>
    </rdf:RDF>
  </metadata>
  <g
     inkscape:groupmode="layer"
     id="layer3"
     inkscape:label="GnuPG Lock"
     style="display:none;opacity:0.520773"
     sodipodi:insensitive="true"
     transform="translate(-72.870038,-33.651345)">
    <path
       class="fil0"
       d="M 75.538884,105.28218 H 82.79646 V 83.43583 c 0,-24.49047 19.86163,-44.35209 44.35182,-44.35209 24.49097,0 44.35132,19.86162 44.35132,44.35209 v 21.63055 c -0.10483,0.0734 -0.20914,0.14536 -0.31191,0.21571 h 7.6e-4 l -0.0675,0.0456 -0.008,0.005 -0.008,0.005 -0.008,0.005 -0.0335,0.0218 -0.0396,0.0273 -0.008,0.005 -0.0435,0.0294 -0.002,0.002 -0.018,0.0109 -0.0101,0.005 -0.0205,0.0136 -0.005,0.003 -0.0265,0.0164 h -2.6e-4 l -0.0264,0.0191 -0.0355,0.0245 -0.018,0.0109 -0.0153,0.008 -0.0128,0.008 -0.0399,0.0273 -0.0386,0.0245 -0.002,0.001 -0.0501,0.0333 -0.0101,0.008 -0.0611,0.0401 -0.005,0.003 -0.0256,0.0164 -7.7e-4,5.2e-4 -0.0101,0.005 -0.08,0.0524 -0.0128,0.008 -0.018,0.0109 -0.008,0.005 -0.005,0.003 -0.0412,0.0273 -0.005,0.002 -0.001,7.6e-4 -0.003,0.002 -0.047,0.0303 -0.0104,0.005 -0.0153,0.0109 -0.0153,0.008 -0.0104,0.008 -0.0256,0.0164 -0.0229,0.0136 -0.002,7.6e-4 -0.0256,0.0164 -0.003,0.002 -0.0229,0.0136 -0.008,0.005 -0.018,0.0109 -0.0128,0.008 -0.0128,0.008 -0.0153,0.0109 -0.0101,0.005 -0.13475,0.0845 -0.0286,0.0164 -0.008,0.005 -0.0721,0.0447 -0.005,0.003 -0.0821,0.0499 -0.002,0.001 -0.005,0.003 -0.0229,0.0136 -0.001,7.6e-4 -0.0229,0.0136 -0.003,0.002 -0.0205,0.0136 -0.0205,0.0109 -0.003,0.002 -0.0104,0.005 -0.0355,0.0218 -0.018,0.0109 -0.027,0.0164 -0.0793,0.0466 -0.0793,0.0466 -0.0798,0.0469 -0.0798,0.0472 -0.16107,0.0941 -0.0811,0.0472 -0.0813,0.0475 -0.0337,0.0191 -0.21247,0.12272 -0.0826,0.0474 -0.0833,0.0474 -0.0833,0.048 -0.10968,0.0627 -0.14318,0.081 -0.0849,0.048 -0.32981,0.18544 -0.0153,0.008 -0.0869,0.0483 -0.0869,0.0488 -0.0204,0.0109 -0.11582,0.0638 -0.26,0.1429 -0.12221,0.0671 c -0.12476,0.0676 -0.25081,0.13608 -0.37812,0.20426 l -0.0325,0.0164 -0.0593,0.0316 -0.18511,0.0984 -0.0931,0.0496 -0.0153,0.008 -0.17105,0.0903 -7.6e-4,5.1e-4 -0.0946,0.0494 -0.027,0.0136 -0.1631,0.0854 -0.0956,0.0496 -0.0877,0.0453 c -0.11939,0.0619 -0.24007,0.12381 -0.36177,0.18572 l -0.0994,0.0507 c -0.14293,0.0723 -0.28737,0.14536 -0.43335,0.2179 l -0.001,5.1e-4 c -0.13933,0.0693 -0.27996,0.13881 -0.42211,0.20835 l -0.14112,0.069 c -0.15444,0.075 -0.31013,0.15054 -0.46787,0.22608 h -7.7e-4 c -8.80767,4.2075 -22.93268,8.6842 -49.74739,10.60909 -19.209424,1.3801 -30.854732,9.83496 -38.450299,20.03856 v -34.81499 z m 27.686776,0 h 47.84499 V 83.43583 c 0,-13.21051 -10.71239,-23.9229 -23.92237,-23.9229 -13.20972,0 -23.92262,10.71239 -23.92262,23.9229 z m 61.97741,3.4456 c -0.14317,0.0723 -0.28711,0.14509 -0.43335,0.2179 M 147.23976,49.81332 c -5.68754,-3.39857 -12.33663,-5.3539 -19.44183,-5.3539 -19.47608,0 -35.529832,14.67395 -37.713725,33.56481 5.709519,-17.86285 22.446155,-30.80234 42.200905,-30.80234 5.24754,0 10.28236,0.9153 14.95465,2.59143 z m 31.51793,63.83099 v 62.60046 H 90.449549 c 9.734721,-5.41244 16.989741,-4.86121 29.005761,-4.4813 16.36336,0.51747 34.44428,-6.33745 43.33658,-15.41408 8.89332,-9.07767 -0.80484,-2.14784 -10.87192,0.40601 -10.06862,2.55229 -29.5511,2.82407 -42.57393,-0.59904 41.01641,0.55914 56.9794,-12.70887 66.04453,-24.59144 9.06462,-11.8823 -3.92063,-2.06297 -12.33279,2.03332 -8.41165,4.10009 -23.0825,7.02926 -39.21474,4.89318 24.41912,-0.0507 42.9991,-12.25354 54.91465,-24.84711 z"
       id="path37"
       style="display:inline;fill:#0093dd;fill-rule:evenodd;stroke-width:2.55665"
       inkscape:connector-curvature="0" />
  </g>
  <g
     inkscape:label="Lock"
     inkscape:groupmode="layer"
     id="layer1"
     style="display:inline"
     sodipodi:insensitive="true"
     transform="translate(-72.870038,-33.651345)">
    <path
       style="fill:#0094dc;fill-opacity:0.521569;fill-rule:nonzero;stroke:#0094dc;stroke-width:1.63641;stroke-linecap:round;stroke-linejoin:round;stroke-opacity:0.521569"
       d="m 432.09591,381.40823 c -36.5854,0.0495 -73.18268,0.009 -109.7407,1.62955 -12.50622,0.597 -25.07679,0.71002 -37.53199,1.90183 -0.7969,3.09694 -0.16445,6.63366 -0.40827,9.87788 -0.20488,34.00228 0.74769,67.99713 0.75837,101.9973 0.0418,12.26741 -0.55393,24.61343 -0.91414,36.80211 1.72329,-0.9816 1.80922,-4.29784 2.90961,-6.1697 5.56454,-14.68886 14.55103,-28.03687 26.45446,-38.34169 21.52168,-18.95546 49.38027,-28.46113 76.82941,-35.02314 40.21569,-9.24355 81.4709,-12.33884 122.36428,-17.34307 38.85416,-4.61586 78.18728,-9.83208 114.91362,-23.98501 17.10857,-6.71427 33.53299,-15.82244 47.0453,-28.38549 0.35303,-1.57437 -2.3315,-0.95719 -3.25443,-1.19874 -38.23133,-0.60605 -76.47298,-0.55852 -114.70545,-1.19121 -41.57029,-0.55727 -83.14673,-0.57186 -124.72007,-0.57062 z"
       id="path3137"
       transform="scale(0.26458333)" />
    <path
       style="fill:#0094dc;fill-opacity:0.521569;fill-rule:nonzero;stroke:#0094dc;stroke-width:1.63641;stroke-linecap:round;stroke-linejoin:round;stroke-opacity:0.521569"
       d="m 679.24844,425.79231 c -28.45907,23.60867 -59.36528,44.46835 -92.90249,60.15098 -35.81608,17.01475 -74.06853,28.1917 -112.71152,36.66596 -0.96812,-0.0716 -3.16712,0.98688 -1.45703,1.70649 8.87186,2.56106 18.10263,4.01285 27.31655,4.61418 14.79944,0.69221 29.67408,0.0216 44.25226,-2.71931 40.86219,-7.16925 79.54908,-23.69064 115.35477,-44.28427 1.74288,-1.18972 -0.0365,1.09666 -0.44023,1.5837 -17.88595,21.04418 -38.86971,39.45158 -61.84497,54.73588 -39.00503,25.81555 -84.33545,41.04143 -130.43502,47.64662 -16.72037,2.4767 -33.55664,3.85252 -50.44074,4.60103 -0.24263,1.72508 4.09152,2.13967 5.65055,3.30221 20.94713,9.30324 43.94869,14.27209 66.91015,13.12936 26.35959,-0.53335 51.95023,-7.78562 76.8175,-15.97711 23.23154,-7.37885 46.05584,-15.99918 69.35761,-23.15244 2.36269,-1.01168 0.80969,0.4277 -0.17172,1.40232 -18.0182,19.40372 -40.31813,34.77709 -64.96035,44.58066 -35.07233,14.34409 -73.0174,18.7677 -110.31323,23.64629 -37.62432,4.90713 -76.14041,9.69078 -110.88471,25.91879 -2.8079,0.73104 -5.3432,3.02912 -0.76818,2.45731 51.74338,0.74401 103.49518,0.17709 155.24056,-0.0787 57.36577,-0.50139 114.74215,-0.97398 172.1048,0.0609 1.1058,-1.73226 0.23363,-4.37868 0.65876,-6.42008 3.1715,-77.71056 3.76755,-155.49147 4.31781,-233.25533 0.0319,-0.34683 -0.42581,-0.51201 -0.65113,-0.31542 z"
       id="path3139"
       transform="scale(0.26458333)" />
  </g>
  <g
     inkscape:groupmode="layer"
     id="layer5"
     inkscape:label="Lock Outline"
     style="display:none"
     sodipodi:insensitive="true"
     transform="translate(-72.870038,-33.651345)">
    <path
       id="path918"
       style="display:inline;fill:none;fill-opacity:1;fill-rule:nonzero;stroke:#000000;stroke-width:0.264583px;stroke-linecap:butt;stroke-linejoin:miter;stroke-opacity:1"
       d="m 179.92158,112.69382 c -0.0577,25.41029 -0.31733,42.75248 -1.16386,63.55095 m -69.41168,-20.08841 c 20.36484,10.43103 37.72207,0.60044 58.78918,-5.93878 -21.25975,23.46329 -53.77934,13.68266 -77.685673,26.02719 v 0 c 31.823783,0.47632 60.357583,-0.60496 88.308143,1e-5 m -69.41165,-20.08842 c 26.12383,-0.74937 48.44496,-8.87754 65.29164,-28.75323 -6.00907,3.8034 -31.53143,17.39049 -50.79461,11.08829 v 0 c 23.06063,-4.76306 39.62967,-12.24015 55.9646,-26.04944 l 0.10645,0.23529 0.007,0.0166 M 75.194029,101.713 c 35.262561,-1.936097 73.150311,-0.32319 104.486271,-0.50694 l -0.2298,-0.11784 c -9e-5,-4e-5 -1.1e-4,-5e-5 -1.7e-4,-8e-5 l -0.0856,-0.0439 c -25.39394,25.29903 -96.165513,3.94179 -104.503912,42.64542 1.193185,-12.81117 -0.0051,-26.47594 0.318969,-41.989"
       sodipodi:nodetypes="ccccccccccccccccccccc" />
  </g>
  <g
     inkscape:groupmode="layer"
     id="layer4"
     inkscape:label="Chameleon"
     style="display:inline"
     transform="translate(-72.870038,-33.651345)">
    <path
       style="fill:#008000;fill-opacity:1;fill-rule:nonzero;stroke:#008000;stroke-width:1.59281;stroke-linecap:round;stroke-linejoin:round;stroke-opacity:0.2"
       d="m 481.62188,128.08584 c -16.94414,0.2271 -34.26397,0.63537 -50.38067,6.48714 -31.11084,10.77146 -57.39465,33.09512 -75.78894,60.12002 -21.11542,29.31842 -38.32309,61.45981 -50.5659,95.46837 -15.663,43.06415 -24.20638,88.49636 -27.37764,134.14674 -1.25661,17.88567 -0.78233,35.84324 -0.81617,53.7607 -0.0896,12.62511 0.58124,25.24146 2.30357,37.7537 3.8577,30.63795 10.87095,61.90317 28.14044,88.00083 15.18444,22.76908 38.93891,40.07023 65.87599,45.76607 14.68657,3.3754 30.36849,3.13468 44.69261,-1.73844 10.60811,-3.91062 20.99374,-10.08681 27.47945,-19.57999 6.90755,-10.43415 9.88047,-23.1391 9.27689,-35.57374 -0.33807,-19.50653 -8.04294,-38.13202 -17.99373,-54.6207 -10.7489,-16.65994 -28.0411,-29.67098 -47.74412,-33.22952 -8.27043,-0.91259 -16.92892,-0.7763 -24.6223,2.77001 -16.51641,6.68772 -26.9431,23.78819 -28.73721,41.08591 -1.4404,13.6273 1.97593,28.04767 10.42958,38.95105 6.48993,7.49067 13.9734,14.5476 23.42862,18.04737 12.33481,5.01418 27.67804,5.58357 38.72564,-2.79429 8.44128,-5.96885 12.52923,-16.79977 10.98839,-26.91183 -1.70709,-13.64359 -10.74574,-27.36853 -24.4765,-31.15596 -4.55832,-0.8419 -9.55594,-0.8901 -13.90885,0.85027 -5.44879,2.78693 -6.96935,9.76063 -5.16993,15.23404 1.98886,6.6055 7.45622,12.52811 14.30147,14.00763 1.30707,-1.00979 -1.22764,-1.94727 -1.87832,-2.60676 -4.43581,-3.57061 -6.7498,-10.48224 -4.10319,-15.69584 2.95607,-4.31839 9.15963,-3.40907 13.31127,-1.61247 11.19523,4.74943 15.64301,18.89963 12.07991,29.99319 -1.93829,5.61168 -6.24468,10.58979 -12.15728,12.07331 -11.05362,3.05659 -23.31933,-0.93195 -31.59746,-8.70701 -7.35348,-6.91929 -12.62551,-16.23341 -14.43106,-26.12092 -0.91348,-7.5541 -1.06862,-15.69372 2.71409,-22.59843 3.83736,-9.07808 12.91701,-15.49241 22.45034,-17.21372 12.802,-2.3944 25.82165,2.80964 35.5804,10.92014 14.33999,11.77256 21.97567,29.91916 24.39455,47.96232 0.26276,6.63867 0.72639,13.41674 -0.3582,19.99746 -2.3683,10.29622 -8.50391,20.04302 -18.04616,25.06697 -9.54897,5.5078 -21.13701,5.00524 -31.71719,3.83063 -19.59712,-2.50312 -38.11587,-14.01184 -48.01705,-31.3054 -7.22385,-12.4032 -9.637,-26.85868 -12.95247,-40.66685 -4.02548,-19.34835 -6.98174,-39.00603 -7.69629,-58.76894 -0.37635,-20.67918 -0.79043,-41.48569 2.24938,-61.98994 3.64788,-28.40921 11.02427,-56.44488 22.94902,-82.53532 2.55318,-1.88242 6.15245,-1.05792 9.14059,-1.59353 8.8467,-0.63848 17.81258,-1.03799 26.49085,-2.90475 0.50275,-1.44769 -1.32264,-2.97788 -1.70555,-4.41501 -3.01253,-5.84163 -6.2127,-11.59893 -8.85984,-17.61953 1.7528,1.31796 2.41089,3.9748 3.59003,5.84453 6.88651,14.64778 16.35709,28.5157 19.103,44.74768 2.5283,9.37886 6.98821,18.14947 9.35557,27.59664 1.68007,6.52676 2.14644,13.28722 3.47748,19.8793 0.34986,7.53583 -0.18727,15.16577 -0.26175,22.73419 1.96713,0.84984 4.63007,0.17713 6.79804,1.09061 3.08559,0.89406 7.28336,3.01363 9.87233,-0.0255 1.30506,-1.21484 2.45895,-3.39358 4.05545,-1.41739 2.63297,2.06862 5.74178,-0.70449 6.24655,-3.40766 2.03271,-8.26703 1.98661,-16.89456 2.40076,-25.35578 -0.0817,-14.18265 -3.26555,-28.14287 -3.0413,-42.33541 0.12158,-4.97708 -0.5884,-10.30806 -4.15241,-14.08934 -6.33939,-7.29039 -15.69407,-11.55118 -20.77739,-20.01621 -6.68374,-10.61418 -12.2629,-21.95978 -17.55757,-33.27116 -4.96279,-10.51217 -6.37856,-22.06709 -8.29894,-33.39476 -0.26938,-2.78116 -3.28045,-3.44982 -5.58724,-3.10228 -5.92563,0.59151 -9.27522,6.35443 -13.2874,10.02708 -8.67564,8.75303 -17.98944,16.85194 -26.9345,25.32862 -0.48127,0.51419 -1.80504,1.23495 -0.74903,0.0897 10.09016,-9.9884 20.87912,-19.26916 30.79612,-29.44704 3.13391,-2.85021 6.20211,-7.00254 10.94688,-6.63135 1.87123,0.0912 4.13409,0.66598 5.29742,1.95552 1.79008,11.53776 3.26898,23.36461 7.83935,34.20188 5.76033,11.80745 11.46831,23.71339 18.54376,34.80258 1.37472,2.75801 4.89139,1.04924 7.32233,1.50605 13.3567,0.22256 26.69037,-0.70492 40.01775,-1.22265 9.84519,-0.0979 19.7877,0.20762 29.54873,0.73313 -1.41124,-3.55742 -4.75775,-6.50155 -6.33462,-10.18182 -0.98564,-6.09901 3.41134,-11.34968 7.04591,-15.7185 5.53434,-6.65093 13.15362,-11.62904 21.81972,-12.90564 17.35208,-2.81454 35.02807,-0.34957 52.52553,-0.89769 11.17977,-0.047 23.13509,-0.39772 32.94075,-6.44544 0.30127,-0.28648 1.85075,-1.24146 1.11366,-0.2387 -5.7883,4.44419 -13.36714,5.86881 -20.40731,6.80041 -14.27743,1.05534 -28.71946,10e-4 -43.06405,0.23383 -10.88304,0.2304 -22.42227,-0.90114 -32.47858,4.17455 -7.67623,3.97062 -14.02788,10.60151 -17.85121,18.33477 -1.33168,2.82272 -1.85511,6.42255 0.42157,8.93747 5.76628,9.00451 12.14123,17.6471 19.76022,25.18189 5.49438,5.82111 9.70946,13.74885 17.80306,16.37756 7.52629,1.71973 11.35558,9.11554 14.91431,15.23575 8.27903,13.72652 12.44564,29.63928 22.0094,42.62285 2.0583,2.75426 4.71631,5.10283 6.39225,8.06233 2.89095,3.24193 8.70887,-1.22674 6.61365,-4.88431 -0.49615,-0.62848 -0.4746,-1.55643 0.53502,-0.98856 2.63219,0.92186 6.12959,3.23625 8.70188,1.04124 1.2691,-3.35764 -0.22077,-7.1033 -0.91251,-10.45852 -2.5346,-10.14008 -9.52878,-18.24266 -16.67809,-25.52028 -5.53426,-6.37398 -10.31223,-14.08215 -11.17861,-22.57698 -0.40046,-2.61335 1.21336,-6.2838 4.39127,-5.6177 3.83517,0.5241 6.75901,3.4618 9.79579,5.56749 3.21223,-0.74623 7.30112,0.67903 10.41991,-0.23804 -2.63926,-5.01279 -7.62807,-11.10229 -12.34104,-14.34739 -3.77309,-2.6634 -8.80632,-4.00025 -13.13924,-1.83224 -3.39127,1.06946 -5.68085,5.39143 -9.66244,4.16986 -7.91167,-2.88628 -14.33606,-8.72268 -20.6007,-14.17142 -6.18947,-5.78322 -12.37547,-12.27947 -14.88917,-20.55461 1.68109,-3.66672 5.82424,-5.66427 9.43279,-6.93137 10.94411,-3.06031 22.47159,-2.28195 33.71351,-2.37096 14.74175,0.006 29.74511,1.74883 44.28238,-1.45402 3.55432,-0.73736 6.63443,-2.70994 9.44103,-4.88843 0.01,1.1447 -1.98033,2.13618 -2.98211,2.86524 -10.37879,5.81429 -22.76923,4.14107 -34.23037,4.25735 -14.47163,0.0448 -29.01183,-0.81948 -43.43626,0.64053 -5.4691,0.90515 -11.48405,2.57712 -15.17069,6.98201 -0.73403,2.48926 1.44805,4.90181 2.37713,7.08777 1.46635,2.31035 2.86538,5.83502 6.22763,5.41356 21.24153,1.39095 42.53846,3.758 63.8434,2.41994 12.23734,-1.20658 22.65765,-8.46258 33.77703,-13.01921 3.02354,-1.73061 6.79229,-2.18472 9.52,-4.34422 0.12052,-1.43724 1.13301,0.55661 1.16716,1.16799 3.27198,10.81109 6.01961,21.76289 8.2795,32.82928 1.84007,8.2512 5.09833,16.19367 5.53411,24.70752 0.74836,5.04801 0.53056,10.24199 1.32825,15.26035 1.24682,1.24759 2.44185,-1.42592 3.23972,-2.07379 1.56549,-1.50239 2.80289,-4.37108 5.20864,-4.49213 1.7198,1.3714 0.31824,4.05675 0.50124,5.87397 -0.45256,5.3157 -1.41719,10.62334 -1.52518,15.94905 1.21108,0.6655 1.84144,-1.67039 2.67927,-2.29333 2.8427,-3.53357 5.17264,-7.80357 8.95698,-10.35864 1.52214,2.29681 1.18767,5.46384 1.8808,8.09772 -0.004,1.21121 0.84924,4.09201 2.41746,2.46356 5.17733,-5.10467 4.97608,-13.01414 5.64704,-19.74673 0.39388,-4.6609 -1.3918,-9.09432 -1.841,-13.6862 -0.22067,-2.75047 -1.71186,-5.44443 -1.38529,-8.19814 2.81473,-2.88263 7.31058,-4.18666 9.25748,-7.85737 -0.5606,-2.0616 -3.49851,-2.26847 -5.11807,-3.20435 -4.93286,-1.83274 -10.54877,-3.14154 -13.67921,-7.77917 -4.27326,-5.85775 -5.92015,-13.16866 -8.03022,-20.00889 -0.83607,-2.18924 -0.6898,-4.65521 -1.32685,-6.84413 -2.85512,-0.94066 -5.96256,-1.68182 -8.79373,-2.95298 -12.60265,-4.46698 -21.76431,-15.83897 -25.16433,-28.55223 -4.07708,-14.22603 -2.83676,-29.2857 -1.22307,-43.80204 2.7987,-21.85614 9.87929,-42.84044 15.66019,-64.03869 0.44445,-2.19727 1.80079,-4.84108 -0.29534,-6.64345 -19.19298,-25.31529 -48.09109,-41.87391 -78.51773,-49.83567 -19.46524,-5.26113 -39.65585,-7.25168 -59.78467,-6.95783 z"
       id="path3129"
       transform="scale(0.26458333)"
       sodipodi:nodetypes="sccccccccccccccccccccccccccccccccccccccccccccccccccccccccccccccccccccccccccccccccccccccccccccccccccccccccccccccccccccccccccccccccccccccccccccccss" />
    <path
       style="fill:#008000;fill-opacity:1;fill-rule:nonzero;stroke:none;stroke-width:1.59281;stroke-linecap:round;stroke-linejoin:round;stroke-opacity:0.2"
       d="m 637.49513,136.7943 c -3.18509,0.62435 -4.03654,4.53982 -5.55103,6.93056 -5.96072,12.36188 -6.81519,26.34517 -9.51548,39.59569 -3.02897,17.28047 -9.67348,33.6594 -13.27221,50.82334 -4.30053,19.33621 -7.22343,39.46663 -4.18138,59.21343 2.07066,13.23976 9.8028,25.96167 22.00272,32.08942 12.60663,6.67308 27.40977,7.09171 41.32776,6.02177 8.42659,-0.96263 16.8757,-1.28358 25.34604,-1.89617 6.06719,-0.33871 12.86469,-2.71223 15.45463,-8.70517 2.73398,-5.79474 4.79268,-12.06578 5.79323,-19.54861 1.00054,-7.48283 0.91531,-14.6463 -2.02705,-20.94163 -5.38632,-13.53868 -4.66443,-28.15898 -5.36032,-42.48448 -4.99218,-27.53259 -15.67522,-19.56533 -32.62732,-26.26298 -4.70415,-2.28857 -7.35078,-7.15914 -8.33641,-12.11777 -5.92006,-18.52195 -11.49279,-37.3892 -20.92172,-54.50033 -2.09038,-3.05606 -3.94817,-7.43218 -7.94708,-8.21789 l -0.0272,-8.2e-4 z"
       id="path3131"
       transform="scale(0.26458333)"
       sodipodi:nodetypes="cccccccccccccccccc" />
    <path
       style="fill:#006200;fill-opacity:1;fill-rule:nonzero;stroke:#000000;stroke-width:0.121932;stroke-linecap:round;stroke-linejoin:round;stroke-opacity:0.2"
       d="m 644.02691,232.99363 c -3.07255,0.0403 -6.07591,0.86303 -8.94618,1.90594 -2.30632,0.8247 -4.43775,2.13347 -6.19951,3.83677 -2.04931,1.91976 -3.65829,4.29659 -4.70528,6.90055 -0.82113,1.95031 -1.54544,3.94036 -2.16725,5.96309 -0.22868,0.75839 -0.53534,1.5115 -0.54103,2.31561 -0.24917,3.89068 0.10393,7.81444 0.9647,11.61435 1.11548,4.79992 3.06327,9.41596 5.79005,13.5242 0.35038,0.60117 0.96129,0.96863 1.52305,1.34664 1.75978,1.11583 3.85014,1.63088 5.91833,1.70144 1.32379,0.0187 2.65205,-0.0329 3.95877,-0.25885 1.66773,-0.24994 3.30365,-0.70569 4.91498,-1.16437 2.06709,-0.49005 4.0506,-1.3676 5.76125,-2.63265 1.72356,-1.29431 3.15721,-2.99816 4.02552,-4.97908 1.35427,-2.88403 2.18918,-5.99076 2.63868,-9.13921 0.54399,-3.83058 0.6132,-7.71006 0.56865,-11.57293 -0.0681,-2.04615 -0.32858,-4.08529 -0.73298,-6.09153 -0.6991,-3.37336 -1.92819,-6.70822 -4.05918,-9.44968 -0.65964,-0.83285 -1.36037,-1.67169 -2.30062,-2.19924 -1.91205,-1.1804 -4.18375,-1.65043 -6.41195,-1.62105 z m -15.15893,12.92951 c 0.57115,-0.0161 1.17669,0.14222 1.59403,0.54856 1.18532,1.32813 1.89591,3.05235 2.08815,4.81553 0.12784,1.2786 -0.0246,2.66028 -0.49901,3.88641 -0.36946,1.04922 -1.16677,1.99349 -2.24432,2.34736 -0.48899,0.15188 -1.02072,0.18477 -1.51115,0.0202 -1.51196,-0.40193 -2.67543,-1.72288 -3.06431,-3.214 -0.28466,-1.11018 -0.0245,-2.25501 0.13537,-3.363 0.22032,-1.33035 0.57648,-2.65508 1.36773,-3.76071 0.32222,-0.48169 0.74212,-0.98327 1.33454,-1.15391 0.25513,-0.0973 0.5269,-0.13429 0.79897,-0.12645 z"
       id="path3127"
       transform="scale(0.26458333)" />
    <path
       style="fill:#006200;fill-opacity:1;fill-rule:nonzero;stroke:#008000;stroke-width:1.59281;stroke-linecap:round;stroke-linejoin:round;stroke-opacity:0.2"
       d="m 705.62033,227.75658 c 1.63948,5.92841 2.77669,11.99728 2.74201,18.21753 0.0941,9.38583 0.16735,19.05905 3.18106,28.03445 1.12023,1.27099 2.51766,-1.06739 3.42824,-1.64127 5.22535,-5.47381 10.90956,-12.11336 10.68541,-20.14614 -0.49507,-8.75268 -4.98497,-17.59348 -13.01974,-21.66848 -2.15128,-1.13704 -4.32403,-2.31565 -6.61119,-3.13768 l -0.32241,0.2714 z m 14.00433,27.31643 c 2.75133,0.85486 2.65587,4.6103 1.26347,6.61777 -0.94064,2.08267 -3.88387,4.76337 -6.06712,2.80185 -2.27767,-2.55227 0.20498,-6.10303 2.07752,-8.07961 0.75767,-0.66516 1.67796,-1.3369 2.72613,-1.34001 z"
       id="path3133"
       transform="scale(0.26458333)" />
    <path
       id="path951"
       style="fill:none;fill-rule:evenodd;stroke:#000000;stroke-width:0.264583px;stroke-linecap:butt;stroke-linejoin:miter;stroke-opacity:1"
       d="m 156.52847,78.939535 c -5.32276,4.18093 -18.95932,0.179097 -25.0923,2.802197 -2.5595,0.797277 -6.92907,5.926631 -5.16369,7.418092 1.65767,2.547457 3.35346,5.145916 5.70542,7.100957 1.37271,1.95393 2.79024,3.970349 5.1825,4.276609 2.32191,1.46214 2.98233,3.98629 4.3748,6.10929 1.70469,3.64247 2.92938,7.69841 5.91875,10.54966 0.54033,1.93528 3.25427,0.31064 2.00553,-1.14438 1.03246,0.71482 3.34514,1.41295 2.70547,-0.76155 -0.24929,-3.4058 -2.40186,-6.30988 -4.87866,-8.50109 -4.0864,-5.00993 -3.68851,-9.869035 0.81823,-5.76834 1.64198,-0.1127 1.22769,-0.0968 2.92989,-0.0777 0,0 -1.86124,-4.031416 -5.30224,-4.812884 -4.41361,0.283699 -1.49935,3.730106 -7.71143,-0.675315 -2.40479,-2.099416 -4.67864,-3.930308 -5.76369,-7.004919 3.1886,-5.261848 22.01379,0.432286 25.62556,-4.143844"
       sodipodi:nodetypes="cccccccccccccccc" />
    <path
       id="path961"
       style="fill:none;fill-rule:evenodd;stroke:#000000;stroke-width:0.264583px;stroke-linecap:butt;stroke-linejoin:miter;stroke-opacity:1"
       d="m 167.78066,36.733466 c -2.93845,4.823759 -2.32434,10.734967 -4.42732,16.938055 -6.00464,19.351242 -7.41597,37.170398 15.97067,33.845822 2.82266,-0.34793 6.63871,0.519679 8.32312,-2.413484 1.34326,-2.92251 2.12108,-6.334678 1.5868,-9.548189 -1.44036,-3.298673 -2.05004,-6.638689 -1.9189,-10.356052 0.10543,-2.988698 -0.66985,-7.036539 -3.99201,-8.179723 -2.68171,-0.144266 -6.31688,-0.73987 -6.78918,-3.991622 -1.441,-4.666815 -6.309,-20.307164 -8.75318,-16.294807 z"
       sodipodi:nodetypes="sccccsccs" />
    <path
       id="path965"
       style="fill:none;fill-rule:evenodd;stroke:#000000;stroke-width:0.264583px;stroke-linecap:butt;stroke-linejoin:miter;stroke-opacity:1"
       d="m 166.04137,60.670966 c 1.25178,-1.150097 2.01597,-3.989842 5.54235,-2.268081 6.15251,3.003979 4.81864,12.876188 11.45448,18.605061"
       sodipodi:nodetypes="csc" />
    <path
       id="path969"
       style="fill:none;fill-rule:evenodd;stroke:#000000;stroke-width:0.264583px;stroke-linecap:butt;stroke-linejoin:miter;stroke-opacity:1"
       d="m 186.28802,59.808914 c 0.75282,0.4578 1.63943,0.631531 2.37196,1.128351 1.22993,0.722485 2.34131,1.766201 2.81528,3.144425 0.33861,0.929681 0.60716,1.905188 0.65503,2.897055 -0.0262,1.461888 -0.88914,2.729413 -1.72577,3.86354 -0.57974,0.754383 -1.2071,1.567715 -2.12009,1.924668"
       sodipodi:nodetypes="cccccc" />
    <path
       id="path973"
       style="fill:none;fill-rule:evenodd;stroke:#000000;stroke-width:0.235972px;stroke-linecap:butt;stroke-linejoin:miter;stroke-opacity:1"
       d="m 190.82737,67.901181 c -0.10205,-0.252581 -0.41609,-0.431619 -0.67671,-0.304674 -0.48863,0.195356 -0.77543,0.66932 -1.01861,1.109655 -0.18884,0.350696 -0.27235,0.816837 -0.0372,1.166072 0.15994,0.234824 0.48653,0.308686 0.74309,0.200245 0.51106,-0.170908 0.8155,-0.667621 0.98824,-1.150569 0.11764,-0.303015 0.17457,-0.652507 0.03,-0.957487 l -0.0139,-0.03185 z" />
    <path
       id="path981"
       style="fill:none;fill-rule:evenodd;stroke:#000000;stroke-width:0.264583px;stroke-linecap:butt;stroke-linejoin:miter;stroke-opacity:1"
       d="m 164.03173,75.647062 c 1.81251,2.327275 4.77531,3.260346 7.55013,3.843666 3.71605,0.924774 7.57895,1.020998 11.38507,0.823868 2.06,0.03908 4.2324,0.26161 6.15711,-0.644616" />
    <path
       id="path1069"
       style="fill:none;fill-rule:evenodd;stroke:#000000;stroke-width:0.264583px;stroke-linecap:butt;stroke-linejoin:miter;stroke-opacity:1"
       d="M 164.56031,49.475646 C 155.50442,36.971154 138.91565,32.890669 124.19799,33.94181 111.21776,33.652066 99.766235,42.237745 93.060646,52.819861 76.867405,75.48218 71.743532,104.35118 73.25413,131.71872 c 1.05623,12.82375 3.882497,27.4258 14.947444,35.48048 8.122086,6.10737 21.322886,8.0791 28.909336,0.12576 5.74209,-7.21955 3.03016,-17.54959 -1.36308,-24.71578 -4.09114,-6.72892 -13.34352,-12.07266 -20.887574,-7.69159 -7.778452,4.70544 -8.468033,16.90133 -1.492476,22.66748 4.271896,4.22222 12.66803,5.64973 16.44232,0.11931 3.86125,-5.81897 -2.1571,-16.05953 -9.26093,-13.38918 -3.843173,2.49 0.2781,9.09692 4.22535,7.78266" />
    <path
       id="path977"
       style="fill:none;fill-rule:evenodd;stroke:#000000;stroke-width:0.264583px;stroke-linecap:butt;stroke-linejoin:miter;stroke-opacity:1"
       d="m 166.77455,65.216788 c -0.25918,-0.201196 -0.68633,-0.157451 -0.86795,0.127451 -0.34683,0.429796 -0.41692,0.998349 -0.48007,1.528386 -0.0767,0.586671 0.37447,1.214318 0.97561,1.268797 0.36704,0.0088 0.67558,-0.28542 0.79021,-0.616894 0.31231,-0.763861 0.1334,-1.6984 -0.4178,-2.30774 z" />
    <path
       style="fill:none;fill-rule:evenodd;stroke:#000000;stroke-width:0.264583px;stroke-linecap:butt;stroke-linejoin:miter;stroke-opacity:1"
       d="m 163.20802,87.406061 c 0.18868,0.684898 0.3765,1.366654 0.66455,2.327324 0.28805,0.960671 0.6762,2.200226 0.95451,3.43404 0.2783,1.233815 0.44733,2.462101 0.76383,3.75248 0.3165,1.290379 0.77978,2.642623 1.02978,3.552405 0.24999,0.90977 0.28755,1.37743 0.33136,1.99437 0.0438,0.61694 0.0939,1.38321 0.16615,1.96652 0.0723,0.5833 0.16618,0.98333 0.1939,1.47884 0.0277,0.49551 -0.01,1.08711 -0.0413,1.42193 -0.0315,0.33482 -0.0565,0.41372 -0.0468,0.43255 0.01,0.0188 0.0535,-0.0206 0.20083,-0.13057 0.1473,-0.10998 0.39772,-0.29028 0.87308,-0.8758 0.47536,-0.58551 1.51111,-2.05032 1.50651,-0.93034 -0.005,1.11998 -0.25801,2.97849 -0.39717,4.11074 -0.13916,1.13225 -0.16419,1.53792 -0.15809,1.70615 0.006,0.16822 0.0437,0.10062 0.11639,0.0379 0.0727,-0.0627 0.17915,-0.11902 0.7372,-0.90301 0.55806,-0.784 2.3591,-3.47881 2.51401,-2.65479 0.15492,0.82401 0.21882,2.25695 0.50726,2.64827 0.28845,0.39132 0.80181,-0.25662 1.13035,-0.74635 0.32854,-0.48972 0.47253,-0.82215 0.61041,-1.58789 0.13788,-0.76574 0.26934,-1.96585 0.3321,-2.73757 0.0627,-0.77173 0.0565,-1.11541 0.004,-1.36876 -0.0523,-0.25334 -0.15246,-0.41674 -0.22843,-0.84227 -0.076,-0.42553 -0.12605,-1.11292 -0.24773,-1.75788 -0.12167,-0.64496 -0.31575,-1.24784 -0.40715,-1.61447 -0.0914,-0.366638 -0.0789,-0.496226 0.3632,-0.782233 0.44206,-0.286007 1.06185,-0.599019 1.64302,-1.10926 0.58116,-0.510242 0.60657,-0.780136 0.31108,-1.028379 -0.29549,-0.248243 -0.91528,-0.473615 -1.77925,-0.758237 -0.86396,-0.284623 -1.97208,-0.628317 -2.7713,-1.45828 -0.79921,-0.829964 -1.28754,-2.148402 -1.70711,-3.390793 -0.41957,-1.242391 -0.77016,-2.408701 -0.9055,-3.113776 -0.13535,-0.705076 -0.054,-0.947374 0.028,-1.191218"
       id="path1077"
       inkscape:path-effect="#path-effect1079"
       inkscape:original-d="m 163.20802,87.406061 c 0.19047,0.684405 0.37828,1.366163 0.56345,2.045277 0.3908,1.2422 0.77896,2.481754 1.16447,3.718663 0.17168,1.230931 0.34071,2.459217 0.5071,3.68486 0.46593,1.354889 0.92921,2.707134 1.38985,4.056739 0.0402,0.47029 0.0778,0.93794 0.11269,1.40295 0.0527,0.76891 0.10281,1.53518 0.15025,2.29881 0.0966,0.40268 0.19047,0.80272 0.28173,1.20012 -0.0349,0.59425 -0.0725,1.18585 -0.11271,1.77481 -0.0224,0.0815 -0.0474,0.16041 -0.0751,0.23665 0.0465,-0.0368 0.0903,-0.0762 0.13147,-0.11832 0.25306,-0.17766 0.50348,-0.35796 0.75126,-0.5409 0.70109,-0.99087 1.57752,-2.56833 2.10356,-2.97494 -0.46952,2.74629 -0.67351,4.61154 -0.88276,6.47387 -0.0224,0.40832 -0.0474,0.81399 -0.0751,1.21701 0.0402,-0.065 0.0778,-0.13258 0.11269,-0.20284 0.10908,-0.0537 0.21551,-0.11003 0.31929,-0.16902 1.01095,-1.51197 2.65748,-4.31004 3.03324,-4.53847 0.004,1.98328 0.11218,3.41424 0.21596,4.84272 0.51602,-0.64531 1.02939,-1.29325 1.54011,-1.94385 0.14663,-0.32978 0.29062,-0.66221 0.43197,-0.99728 0.13411,-1.19747 0.26558,-2.39758 0.39441,-3.60034 -0.004,-0.34105 -0.01,-0.68474 -0.0188,-1.03109 -0.0975,-0.16075 -0.19768,-0.32415 -0.30049,-0.49019 -0.0474,-0.68474 -0.0975,-1.37213 -0.15025,-2.06216 -0.19144,-0.60023 -0.38552,-1.20311 -0.58224,-1.808637 0.0152,-0.126941 0.0277,-0.256532 0.0376,-0.388765 0.87152,-0.439739 1.48013,-0.774893 2.61063,-1.318435 0.29689,-0.431199 0.19672,-0.712917 0.0939,-0.99728 -0.61716,-0.222729 -1.23695,-0.448104 -1.85939,-0.676122 -1.10547,-0.341048 -2.21359,-0.684744 -3.32436,-1.031084 -0.48568,-1.315791 -0.974,-2.634231 -1.46497,-3.955317 -0.34794,-1.163664 -0.69853,-2.329974 -1.05177,-3.498929 0.084,-0.239628 0.16546,-0.481904 0.24416,-0.726827"
       sodipodi:nodetypes="cccccccccccccccccccccccccccccccccc" />
    <path
       id="path1097"
       style="fill:none;fill-rule:evenodd;stroke:#000000;stroke-width:0.264583px;stroke-linecap:butt;stroke-linejoin:miter;stroke-opacity:1"
       d="m 97.303123,86.831367 c 1.916809,4.482128 5.398547,9.065489 5.916497,13.917083 1.30604,3.6501 2.80673,6.45566 2.98585,10.5392 0.9821,2.37874 -0.0704,6.44137 0.42246,7.8041 2.15073,-0.52466 3.37889,1.95177 4.99842,-0.51399 2.65472,2.06401 2.60435,-3.3058 2.67577,-5.3003 0.58784,-4.62962 -0.9646,-9.23506 -0.65847,-13.874266 0.13819,-3.174599 -2.8187,-4.78561 -4.97108,-6.478126 -2.55138,-2.521392 -3.81838,-6.046496 -5.54088,-9.144053 -1.96513,-3.338357 -2.42467,-7.23095 -2.99248,-10.988241 -2.899713,-1.863758 -4.740077,2.653769 -6.862008,3.965739 -1.858779,1.79662 -3.837949,3.477401 -5.627878,5.339994"
       sodipodi:nodetypes="cccccccccccc" />
    <path
       id="path1101"
       style="fill:#008000;fill-rule:evenodd;stroke:#000000;stroke-width:0.264583px;stroke-linecap:butt;stroke-linejoin:miter;stroke-opacity:1"
       d="m 107.38269,91.468971 c 4.9194,0.47023 9.18786,-0.33905 14.89183,-0.187204 1.78375,-0.03423 3.88749,0.169669 5.46648,0.106628"
       sodipodi:nodetypes="ccc" />
    <path
       style="fill:none;fill-rule:evenodd;stroke:#000000;stroke-width:0.264583px;stroke-linecap:butt;stroke-linejoin:miter;stroke-opacity:1"
       d="m 134.00549,91.566751 c 4.58684,0.337591 9.16858,0.674807 12.25951,0.806545 3.09092,0.131738 4.69362,0.05849 6.12678,-0.206536 1.43316,-0.265027 2.6978,-0.721409 3.86507,-1.256642 1.16726,-0.535234 2.23781,-1.149377 3.26171,-1.639595 1.0239,-0.490218 2.00055,-0.856455 2.6204,-1.084642 0.61985,-0.228187 0.88279,-0.318336 1.14418,-0.407954"
       id="path1105"
       inkscape:path-effect="#path-effect1107"
       inkscape:original-d="m 134.00549,91.566751 c 4.58682,0.337835 9.16856,0.67505 13.74521,1.011647 1.60535,-0.0706 3.20805,-0.143849 4.80811,-0.219745 1.26728,-0.453734 2.53192,-0.910116 3.79391,-1.369142 1.07319,-0.611497 2.14374,-1.22564 3.21165,-1.842428 0.97929,-0.363591 1.95594,-0.729824 2.92994,-1.098706 0.26559,-0.0875 0.52853,-0.177652 0.78883,-0.27045"
       sodipodi:nodetypes="ccccccc" />
    <path
       id="path1122"
       style="fill:none;fill-rule:evenodd;stroke:#000000;stroke-width:0.238467px;stroke-linecap:butt;stroke-linejoin:miter;stroke-opacity:1"
       d="m 105.26524,152.03567 c -4.22849,0.87409 -6.051778,-6.79538 -0.82396,-5.34441 5.10188,1.39008 5.66874,10.10711 0.19299,11.35482 -8.098937,1.59093 -14.596186,-8.81705 -10.81847,-15.72373 2.413613,-4.54849 8.47657,-5.24338 12.62079,-2.78552 6.02683,3.12605 8.9642,10.33876 9.0503,16.82136 -0.0744,6.45906 -4.11288,10.29526 -9.54936,10.55797 -9.159382,0.25365 -16.498719,-4.80239 -18.634489,-13.95541 -5.636282,-20.8303 -4.295276,-42.37374 3.443899,-59.22613 1.110969,-0.08148 2.219292,-0.165611 3.324969,-0.252385 1.086243,-0.06871 2.16984,-0.140068 3.250791,-0.214071 0.667783,-0.04096 2.191872,-0.429466 2.85436,-0.475714"
       sodipodi:nodetypes="cccccccccccc" />
    <path
       id="path1148"
       style="fill:none;fill-rule:evenodd;stroke:#000000;stroke-width:0.264583px;stroke-linecap:butt;stroke-linejoin:miter;stroke-opacity:1"
       d="m 164.41535,66.972307 c -0.20658,2.450739 0.46855,4.959416 1.85032,6.991169 1.17271,1.027801 2.87174,0.75685 4.2379,0.336821 1.1365,-0.250296 2.17657,-0.957983 2.65039,-2.045789 0.80842,-1.697737 0.86231,-3.639144 0.85404,-5.485635 -0.0869,-1.619197 -0.46511,-3.377386 -1.65548,-4.554877 -1.26666,-0.973488 -3.00762,-0.583929 -4.38138,-0.0745 -1.35612,0.497318 -2.3997,1.625162 -2.90362,2.967009 -0.26022,0.606054 -0.45872,1.236005 -0.65217,1.8658 z" />
    <path
       style="fill:#000000;fill-opacity:1;fill-rule:nonzero;stroke:#000000;stroke-width:0.121932;stroke-linecap:round;stroke-linejoin:round;stroke-opacity:0.2"
       d="m 628.87195,246.14109 c -0.66303,0.006 -1.34088,0.30373 -1.71109,0.86925 -0.49433,0.63427 -0.88106,1.34929 -1.11769,2.11887 -0.40102,1.18507 -0.55158,2.43606 -0.69404,3.67341 -0.2401,2.01786 1.19543,4.12207 3.19259,4.56243 0.81451,0.20793 1.66891,-0.1601 2.26955,-0.70446 0.59218,-0.51562 0.93365,-1.24454 1.16255,-1.98153 0.53606,-1.62663 0.51099,-3.42604 -0.006,-5.05415 -0.36864,-1.08654 -0.89189,-2.15037 -1.684,-2.99203 -0.36976,-0.35596 -0.91082,-0.49324 -1.41193,-0.49179 z"
       id="path3125"
       transform="scale(0.26458333)" />
    <path
       style="fill:#000000;fill-opacity:1;fill-rule:nonzero;stroke:#000000;stroke-width:1.59281;stroke-linecap:round;stroke-linejoin:round;stroke-opacity:0.2"
       d="m 719.24768,255.6179 c -2.32349,1.01913 -4.24762,3.47961 -4.72216,6.01032 -0.38693,1.94955 2.10668,4.30061 3.68175,2.35985 2.07431,-1.83574 4.57694,-5.60415 1.93183,-8.008 -0.23947,-0.22462 -0.55618,-0.38347 -0.89142,-0.36217 z"
       id="path3135"
       transform="scale(0.26458333)" />
  </g>
  <g
     inkscape:groupmode="layer"
     id="layer2"
     inkscape:label="Chameleon Photo"
     style="display:none;opacity:1"
     sodipodi:insensitive="true"
     transform="translate(-72.870038,-33.651345)">
    <image
       width="182.80392"
       height="182.80392"
       preserveAspectRatio="none"
       xlink:href="file:///tmp/c.jpeg"
       id="image861"
       sodipodi:absref="/tmp/c.jpeg"
       x="25.033749"
       y="10.543562"
       transform="rotate(-4.8557502)" />
  </g>
</svg>
