<?xml version="1.0" encoding="UTF-8" standalone="no"?>
<svg
   xmlns:dc="http://purl.org/dc/elements/1.1/"
   xmlns:cc="http://creativecommons.org/ns#"
   xmlns:rdf="http://www.w3.org/1999/02/22-rdf-syntax-ns#"
   xmlns:svg="http://www.w3.org/2000/svg"
   xmlns="http://www.w3.org/2000/svg"
   xmlns:sodipodi="http://sodipodi.sourceforge.net/DTD/sodipodi-0.dtd"
   xmlns:inkscape="http://www.inkscape.org/namespaces/inkscape"
   width="189.25499mm"
   height="128.57567mm"
   viewBox="0 0 189.25499 128.57567"
   version="1.1"
   id="svg8"
   inkscape:version="1.0.2 (e86c870879, 2021-01-15)"
   sodipodi:docname="logo.svg"
   inkscape:export-filename="/home/teythoon/repos/pep/sequoia-octopus-librnp/logo.png"
   inkscape:export-xdpi="24.309999"
   inkscape:export-ydpi="24.309999">
  <defs
     id="defs2">
    <inkscape:path-effect
       effect="bspline"
       id="path-effect16"
       is_visible="true"
       lpeversion="1"
       weight="33.333333"
       steps="2"
       helper_size="0"
       apply_no_weight="true"
       apply_with_weight="true"
       only_selected="false" />
    <clipPath
       clipPathUnits="userSpaceOnUse"
       id="clipPath1191">
      <path
         id="path1193"
         style="display:inline;opacity:1;fill:#50d465;fill-opacity:0.498064;fill-rule:nonzero;stroke:none;stroke-width:0.415846;stroke-linecap:round;stroke-linejoin:round;stroke-miterlimit:4;stroke-dasharray:none;stroke-dashoffset:0;stroke-opacity:1"
         d="m 44.302711,86.118202 v 32.495948 c -0.436944,17.32298 -0.02788,15.91191 9.828392,16.13302 0.01446,0.007 0.0289,0.0146 0.0434,0.022 0.150171,0.0751 0.302863,0.14562 0.458158,0.2106 0.0084,0.003 0.01692,0.007 0.02536,0.0103 0.147895,0.0613 0.297709,0.11766 0.44956,0.16978 0.01681,0.006 0.03343,0.012 0.05028,0.0176 0.152831,0.0513 0.307627,0.0976 0.463743,0.13968 0.02605,0.007 0.0521,0.0139 0.07822,0.0206 0.160029,0.0414 0.32125,0.079 0.483943,0.11089 0.161547,0.0316 0.324298,0.0573 0.487812,0.0795 0.02595,0.003 0.05181,0.007 0.07779,0.0107 0.159734,0.0201 0.320046,0.0357 0.480935,0.0468 0.02508,0.002 0.05012,0.003 0.07521,0.005 0.162097,0.01 0.324392,0.016 0.486951,0.0168 0.0043,2e-5 0.0089,4.4e-4 0.01331,4.4e-4 0.16116,4.4e-4 0.322537,-0.004 0.483514,-0.0129 0.03844,-0.002 0.07677,-0.004 0.115184,-0.007 0.15451,-0.0102 0.30879,-0.0238 0.462455,-0.0421 0.02385,-0.002 0.04752,-0.007 0.07134,-0.009 0.144631,-0.0185 0.28859,-0.0408 0.431938,-0.0666 0.02781,-0.005 0.05562,-0.01 0.08338,-0.015 0.153828,-0.0293 0.306462,-0.0629 0.458153,-0.10057 0.03406,-0.009 0.06792,-0.0173 0.101862,-0.0262 0.155201,-0.0407 0.309367,-0.0842 0.461592,-0.13365 0.167005,-0.0316 0.333311,-0.07 0.499415,-0.11133 0.246113,-0.0613 0.49139,-0.13166 0.734081,-0.21361 0.541982,-0.183 1.073236,-0.41584 1.584204,-0.69281 0.255484,-0.1385 0.505864,-0.28815 0.749981,-0.44785 0.488234,-0.31938 0.951316,-0.67945 1.379623,-1.07447 0.107155,-0.0988 0.211959,-0.19992 0.314607,-0.303 0.102575,-0.10301 0.202646,-0.20797 0.300424,-0.31504 0.293336,-0.32119 0.56457,-0.66002 0.809292,-1.0143 0.163149,-0.23618 0.314472,-0.47909 0.452997,-0.72806 0.06933,-0.12461 0.135425,-0.2507 0.198133,-0.37821 0.06266,-0.1274 0.121755,-0.25583 0.177505,-0.38596 0.111496,-0.26024 0.208902,-0.52599 0.290966,-0.79597 0.08206,-0.26998 0.148775,-0.54443 0.198993,-0.82261 0.02511,-0.13909 0.04605,-0.27905 0.06276,-0.41991 0.03339,-0.28172 0.04978,-0.56679 0.0477,-0.85442 -0.0031,-0.43145 -0.04743,-0.86868 -0.137103,-1.30913 -0.03518,-0.19801 -0.07693,-0.38651 -0.125069,-0.56604 -0.02407,-0.0898 -0.04976,-0.17734 -0.07694,-0.2626 -0.108688,-0.34103 -0.242009,-0.64622 -0.396697,-0.91803 -0.03867,-0.068 -0.0786,-0.13389 -0.119913,-0.1977 -0.08264,-0.12762 -0.170351,-0.24696 -0.263028,-0.35845 -0.185438,-0.22307 -0.390335,-0.41433 -0.611591,-0.57635 -0.05519,-0.0405 -0.111285,-0.0793 -0.168479,-0.11605 h -4.4e-4 c -0.05729,-0.0368 -0.115281,-0.072 -0.174495,-0.10529 -0.05922,-0.0333 -0.11947,-0.0647 -0.18051,-0.0945 -0.122081,-0.0596 -0.247658,-0.11244 -0.376496,-0.1586 -0.322225,-0.11543 -0.664232,-0.18947 -1.02075,-0.22692 -0.28509,-0.0299 -0.57932,-0.0365 -0.879779,-0.022 -0.150091,0.007 -0.301883,0.0198 -0.454716,0.0374 -0.152978,0.0175 -0.307456,0.0403 -0.462455,0.0674 -0.154855,0.0273 -0.310601,0.059 -0.46675,0.0954 -0.156285,0.0363 -0.313343,0.0772 -0.47019,0.12206 -0.156714,0.0448 -0.313644,0.0938 -0.470189,0.14656 -0.31335,0.10558 -0.625635,0.22641 -0.933932,0.36017 -0.154149,0.0669 -0.307653,0.13712 -0.459445,0.21016 -0.303582,0.14608 -0.601607,0.30383 -0.891383,0.47105 -0.434559,0.25078 -0.85025,0.52285 -1.237364,0.80801 h -4.4e-4 c -0.258035,0.19009 -0.503127,0.3863 -0.732791,0.58581 h -4.4e-4 c -0.114781,0.0997 -0.225628,0.20051 -0.332228,0.3017 -0.106756,0.10134 -0.209047,0.20335 -0.306869,0.30558 -0.09767,0.10207 -0.190902,0.20449 -0.278932,0.30687 0.143518,-0.38335 0.313015,-0.7606 0.506292,-1.12905 0.321969,-0.61381 0.709692,-1.20291 1.151405,-1.75398 v -4.4e-4 c 0.176655,-0.22037 0.362045,-0.43475 0.555288,-0.64211 0.193316,-0.20742 0.394542,-0.40772 0.602993,-0.6004 0.208451,-0.19268 0.424285,-0.37779 0.646404,-0.554 0.222028,-0.17614 0.450435,-0.34359 0.684654,-0.50157 0.11716,-0.079 0.235929,-0.15578 0.355866,-0.22994 0.11983,-0.0741 0.241182,-0.14587 0.363601,-0.21488 0.122527,-0.0692 0.246401,-0.13565 0.371338,-0.19943 0.374692,-0.19128 0.76006,-0.3583 1.153124,-0.49812 0.131197,-0.0467 0.263398,-0.0902 0.396265,-0.13066 0.265482,-0.0809 0.533911,-0.14953 0.804997,-0.20458 0.270946,-0.0551 0.544528,-0.0968 0.819608,-0.12421 h 4.41e-4 c 0.275223,-0.0275 0.552027,-0.0405 0.829924,-0.0386 0.138943,8.8e-4 0.277983,0.006 0.417324,0.0142 0.139342,0.009 0.278635,0.0209 0.418187,0.0374 0.139689,0.0165 0.279324,0.0369 0.419043,0.0615 0.436441,0.13434 0.849166,0.30619 1.237794,0.51102 0.129542,0.0683 0.256219,0.14032 0.380362,0.21575 0.124254,0.0755 0.245659,0.15407 0.364461,0.23639 0.118701,0.0823 0.234485,0.16788 0.3477,0.25658 h 4.4e-4 c 0.113125,0.0886 0.223338,0.18073 0.330939,0.27549 h 4.4e-4 c 0.107601,0.0948 0.212141,0.19258 0.314177,0.29312 0.0521,0.0513 0.101504,0.10539 0.152144,0.15816 0.04861,0.0506 0.09887,0.0998 0.14613,0.15172 0.0447,0.0491 0.08631,0.10104 0.129796,0.15129 0.103292,0.11934 0.203581,0.2413 0.299992,0.36661 0.03824,0.0497 0.07804,0.0981 0.115184,0.14871 0.17033,0.23192 0.328978,0.4731 0.476206,0.72203 0.07359,0.12442 0.144137,0.25048 0.211886,0.37865 0.02258,0.0427 0.04297,0.0867 0.0649,0.1298 0.10967,0.21557 0.213187,0.43492 0.30644,0.6593 0.05595,0.13461 0.108616,0.27054 0.158592,0.40786 l 4.4e-4,4.4e-4 c 0.04991,0.13716 0.09663,0.27565 0.140541,0.41516 0.04397,0.13971 0.085,0.28076 0.122919,0.4225 0.0683,0.25529 0.125178,0.51372 0.173636,0.77405 0.0053,0.0288 0.01208,0.0571 0.01719,0.086 0.02571,0.14492 0.0484,0.29031 0.06791,0.43623 0.03775,0.28231 0.06305,0.56592 0.07736,0.85014 4.4e-4,0.009 0.0018,0.0186 0.0022,0.0279 0.007,0.14694 0.01091,0.29364 0.0116,0.44055 0.0034,0.73383 -0.0726,1.46553 -0.230368,2.17345 -0.0631,0.28315 -0.139143,0.56256 -0.228647,0.83679 -0.117125,0.44072 -0.258465,0.86726 -0.422054,1.2799 v 4.4e-4 c -0.245356,0.61883 -0.540993,1.20583 -0.880637,1.76041 -0.113239,0.18491 -0.231337,0.36647 -0.354148,0.54411 -0.245617,0.3553 -0.510058,0.69602 -0.791241,1.02206 -0.843561,0.97806 -1.838947,1.82324 -2.937181,2.53058 -0.366072,0.23579 -0.743673,0.45655 -1.130775,0.66145 -0.387107,0.2049 -0.783865,0.39414 -1.188367,0.56776 -0.202248,0.0868 -0.406533,0.1695 -0.612449,0.24842 -0.411832,0.15782 -0.830349,0.29997 -1.254126,0.42592 -1.059449,0.31482 -2.150554,0.52924 -3.244908,0.64037 -0.437743,0.0444 -0.876041,0.0726 -1.313007,0.0838 -0.873935,0.0223 -1.742601,-0.0225 -2.591628,-0.13581 -0.21445,-0.0197 -0.429221,-0.0462 -0.643827,-0.0765 -0.0348,-0.005 -0.06964,-0.009 -0.104439,-0.0146 -0.216395,-0.0322 -0.432433,-0.069 -0.648121,-0.11175 -0.0083,-0.002 -0.01661,-0.003 -0.02493,-0.005 -0.223742,-0.0448 -0.447058,-0.095 -0.66918,-0.15086 -0.0057,-0.002 -0.01147,-0.002 -0.01719,-0.004 -0.228465,-0.0578 -0.455812,-0.12151 -0.681647,-0.19082 -0.0013,-4.4e-4 -0.0026,-4.4e-4 -0.0039,-8.8e-4 v 2.78374 l 75.415087,3.53997 0.75946,-11.73089 c -0.03,0.0627 -0.0627,0.12426 -0.0937,0.18653 -0.0578,0.11613 -0.11641,0.2319 -0.17751,0.34641 -0.0397,0.0744 -0.0806,0.14807 -0.12163,0.22177 -0.0559,0.10028 -0.11315,0.19978 -0.17149,0.2987 -0.0435,0.0738 -0.0867,0.14791 -0.13152,0.22091 -0.0867,0.14104 -0.17574,0.28063 -0.26732,0.41862 -0.01,0.0149 -0.0192,0.0302 -0.0292,0.0452 -0.0402,0.06 -0.0827,0.11851 -0.12379,0.17794 -0.0709,0.10249 -0.14226,0.20453 -0.21575,0.30516 -0.0487,0.0667 -0.0984,0.13268 -0.14827,0.19856 -0.0778,0.10279 -0.15713,0.20445 -0.23768,0.30514 -0.0441,0.0551 -0.0875,0.11061 -0.13237,0.16504 -0.12281,0.14902 -0.24786,0.29609 -0.3765,0.44011 -0.0268,0.0299 -0.0547,0.0588 -0.0817,0.0885 -0.10513,0.11577 -0.21226,0.22981 -0.32105,0.34213 -0.0537,0.0555 -0.10826,0.11039 -0.16289,0.16503 -0.0931,0.093 -0.1873,0.1846 -0.2828,0.27506 -0.049,0.0464 -0.0973,0.0935 -0.147,0.13925 -0.13417,0.12359 -0.27049,0.24482 -0.40915,0.36317 -0.007,0.007 -0.0154,0.0135 -0.0232,0.0202 -0.0388,0.0329 -0.0787,0.0642 -0.11777,0.0967 -0.1157,0.0962 -0.23254,0.19117 -0.35114,0.28366 -0.0549,0.0428 -0.11043,0.0848 -0.1659,0.12678 -0.10827,0.0819 -0.21784,0.16195 -0.32836,0.2407 -0.056,0.04 -0.11184,0.0803 -0.16847,0.11948 -0.15754,0.10883 -0.31666,0.21583 -0.47836,0.31803 -0.002,8.8e-4 -0.002,0.002 -0.004,0.002 -0.0256,0.0162 -0.0521,0.0313 -0.0778,0.0472 -0.14307,0.089 -0.28758,0.17549 -0.43366,0.25916 -0.0575,0.0329 -0.11568,0.0646 -0.17364,0.0967 -0.1278,0.0708 -0.25646,0.13933 -0.38637,0.20588 -0.0484,0.0248 -0.0966,0.0502 -0.14528,0.0744 -0.17143,0.0852 -0.34439,0.16732 -0.51918,0.24497 -0.006,0.002 -0.0114,0.006 -0.0172,0.009 -0.0316,0.014 -0.0636,0.0267 -0.0954,0.0404 -0.15145,0.0656 -0.30399,0.12848 -0.45773,0.18825 -0.0602,0.0234 -0.12085,0.0454 -0.18138,0.0679 -0.13387,0.0497 -0.26854,0.0975 -0.40399,0.14269 -0.0566,0.019 -0.11331,0.0382 -0.1702,0.0563 -0.18728,0.0596 -0.37564,0.11604 -0.56561,0.16677 -6.6e-4,1.4e-4 -8.8e-4,2.1e-4 -0.002,4.4e-4 -0.0156,0.004 -0.0313,0.007 -0.0468,0.0115 -0.18054,0.0474 -0.36226,0.0902 -0.54497,0.12937 -0.0517,0.0111 -0.10372,0.0209 -0.15559,0.0314 -0.15151,0.0304 -0.30361,0.058 -0.45644,0.0825 -0.0529,0.009 -0.10586,0.0175 -0.15902,0.0254 -0.19821,0.0291 -0.39729,0.0549 -0.5974,0.0739 -0.002,1.5e-4 -0.003,2.2e-4 -0.005,4.4e-4 -0.003,4.5e-4 -0.007,4.5e-4 -0.0107,8.9e-4 -0.19465,0.0183 -0.39049,0.0302 -0.58667,0.0387 -0.059,0.002 -0.11829,0.004 -0.17749,0.006 -0.15593,0.004 -0.31221,0.006 -0.46891,0.003 -0.0503,-6.6e-4 -0.10052,-4.4e-4 -0.15085,-0.002 -0.20651,-0.005 -0.41311,-0.0147 -0.62062,-0.0313 -0.49681,0.002 -0.99615,-0.019 -1.49438,-0.061 -0.0155,-0.002 -0.0309,-0.002 -0.0464,-0.003 h -4.4e-4 c -0.25689,-0.0225 -0.51344,-0.0506 -0.76933,-0.0851 -0.25589,-0.0344 -0.51102,-0.075 -0.76502,-0.12164 -0.50802,-0.0932 -1.01129,-0.21104 -1.50641,-0.35415 -0.49526,-0.14314 -0.98219,-0.3113 -1.45742,-0.50586 -0.23755,-0.0972 -0.47192,-0.20123 -0.70313,-0.31159 -0.57814,-0.27599 -1.13501,-0.59315 -1.66373,-0.95327 -0.10561,-0.072 -0.20998,-0.14555 -0.31331,-0.22091 h -4.4e-4 c -0.10341,-0.0754 -0.20545,-0.15276 -0.30644,-0.23167 -0.30306,-0.23676 -0.59497,-0.48896 -0.87419,-0.75729 -0.0931,-0.0894 -0.18446,-0.18037 -0.27463,-0.27333 -0.27057,-0.27892 -0.52789,-0.57407 -0.77062,-0.88537 -0.1478,-0.16781 -0.28873,-0.33994 -0.42249,-0.51575 -0.13377,-0.17581 -0.26045,-0.35543 -0.38036,-0.53853 -0.1199,-0.1831 -0.23288,-0.36948 -0.33911,-0.55916 -0.053,-0.0947 -0.10462,-0.19043 -0.15428,-0.28667 v -4.4e-4 c -0.34804,-0.67445 -0.61345,-1.38479 -0.79985,-2.11585 -0.1065,-0.41774 -0.18713,-0.84206 -0.24282,-1.27046 -0.19494,-1.49951 -0.0828,-3.04671 0.30557,-4.51965 0.0555,-0.21042 0.11642,-0.41919 0.1831,-0.62621 0.33334,-1.03519 0.80522,-2.0234 1.40497,-2.92041 0.11993,-0.1794 0.24516,-0.35476 0.37522,-0.5265 1.17046,-1.54553 2.74705,-2.76645 4.66493,-3.40306 0.25497,-0.11044 0.51391,-0.20132 0.77534,-0.27336 0.13071,-0.036 0.26188,-0.0674 0.39367,-0.0941 0.26362,-0.0536 0.52924,-0.0888 0.79513,-0.107 0.9306,-0.0637 1.86647,0.0834 2.7485,0.39884 0.252,0.0901 0.49958,0.19414 0.74138,0.31074 0.72538,0.34977 1.39873,0.81405 1.98218,1.36629 0.0973,0.0921 0.19202,0.18645 0.2841,0.28324 0.27635,0.29045 0.52849,0.60169 0.75213,0.93049 0.12233,0.17983 0.23342,0.36596 0.33782,0.55572 0.0228,0.0415 0.0477,0.0818 0.0696,0.12378 0.02,0.0382 0.0371,0.0778 0.0563,0.11648 0.0983,0.1973 0.18907,0.39829 0.26648,0.60427 0.0462,0.12313 0.0889,0.24759 0.12721,0.37349 0.11501,0.3777 0.19345,0.76745 0.2308,1.16558 0.0152,0.32042 0.006,0.63605 -0.0254,0.94468 -0.0209,0.20575 -0.0514,0.40833 -0.0911,0.60729 -0.0596,0.29846 -0.13982,0.58851 -0.2381,0.86819 -0.0655,0.18643 -0.13907,0.36799 -0.22005,0.54453 v 4.4e-4 c -0.0404,0.0882 -0.0828,0.175 -0.12678,0.26044 -0.0442,0.0857 -0.09,0.16992 -0.13754,0.25273 -0.0475,0.0827 -0.0966,0.16358 -0.14742,0.24326 v 4.4e-4 c -0.1015,0.15926 -0.20972,0.31233 -0.32319,0.45859 -0.17034,0.21953 -0.35326,0.42397 -0.5467,0.61073 -0.12896,0.12451 -0.26263,0.24104 -0.40014,0.34942 -0.13749,0.10839 -0.27909,0.20855 -0.42378,0.29957 -0.21689,0.13645 -0.44135,0.2529 -0.67047,0.34683 -0.0764,0.0314 -0.15336,0.06 -0.23078,0.0864 -0.15485,0.0526 -0.31147,0.0949 -0.46933,0.12635 -0.0789,0.0157 -0.15825,0.0289 -0.23769,0.0391 -0.23812,0.0307 -0.47826,0.0363 -0.71773,0.0146 0.49439,-0.13663 0.92017,-0.36417 1.27905,-0.65844 0.17944,-0.14714 0.34218,-0.31063 0.48824,-0.48824 v -4.4e-4 c 0.0729,-0.0887 0.14204,-0.18073 0.20673,-0.27593 v -4.4e-4 c 0.0648,-0.0953 0.12529,-0.19336 0.18179,-0.29441 0.0565,-0.10116 0.10894,-0.20498 0.15731,-0.31117 0.0483,-0.10604 0.0926,-0.21417 0.13281,-0.32449 0.0803,-0.22077 0.14415,-0.44915 0.19211,-0.68251 0.0239,-0.11659 0.0442,-0.23423 0.0602,-0.35284 0.0638,-0.47453 0.0635,-0.9623 4.4e-4,-1.43937 -0.0315,-0.23855 -0.0787,-0.47419 -0.1414,-0.70443 -0.1881,-0.6908 -0.51575,-1.33088 -0.97863,-1.8395 -0.077,-0.0847 -0.15787,-0.1658 -0.24239,-0.24283 h -4.4e-4 c -0.0846,-0.0771 -0.17269,-0.15009 -0.26474,-0.21876 -0.27617,-0.20605 -0.58555,-0.37263 -0.92792,-0.48953 -0.22825,-0.0779 -0.47124,-0.13376 -0.72849,-0.1646 -0.77871,-0.078 -1.51291,0.0251 -2.18548,0.26903 -0.13452,0.0488 -0.26682,0.10319 -0.39628,0.1629 -1.68264,0.77628 -2.92566,2.448 -3.42799,4.29918 v 4.4e-4 c -0.19313,0.71191 -0.27685,1.45041 -0.23381,2.17473 v 4.4e-4 c 0.0172,0.28964 0.0546,0.57708 0.11347,0.85958 v 4.4e-4 c 0.0295,0.14118 0.0642,0.28107 0.10444,0.41948 v 4.4e-4 c 0.0805,0.27698 0.1832,0.54768 0.30859,0.80972 v 4.4e-4 c 0.0627,0.13096 0.13114,0.25969 0.20544,0.38594 0.0293,0.0498 0.0638,0.0971 0.095,0.14612 0.12692,0.19969 0.26476,0.3947 0.42291,0.57937 0.16454,0.28167 0.34747,0.54705 0.54627,0.7964 v 4.4e-4 c 0.0993,0.12459 0.20281,0.24499 0.30988,0.36145 v 4.4e-4 c 0.10707,0.11647 0.21795,0.22867 0.33223,0.33696 0.22874,0.21682 0.4712,0.41738 0.72547,0.60128 0.2542,0.18383 0.5202,0.35092 0.79554,0.50156 0.13767,0.0754 0.27733,0.14664 0.41948,0.21362 h 4.4e-4 c 1.70558,0.80355 3.71297,1.00471 5.54987,0.57204 0.30618,-0.0721 0.60762,-0.16201 0.90213,-0.26947 0.29439,-0.10744 0.58206,-0.23261 0.86044,-0.37564 0.13924,-0.0716 0.27646,-0.14769 0.41088,-0.22822 0.26882,-0.16105 0.52739,-0.34012 0.77362,-0.53724 0.24631,-0.1972 0.47993,-0.41239 0.69927,-0.64597 0.10955,-0.11668 0.21561,-0.2378 0.31761,-0.3636 v -4.4e-4 c 0.10207,-0.12589 0.20044,-0.25603 0.29441,-0.3911 0.25076,-0.30144 0.47886,-0.6186 0.68465,-0.94856 0.0685,-0.10982 0.13461,-0.22093 0.19814,-0.33351 v -4.4e-4 c 0.2542,-0.45066 0.46842,-0.92239 0.6421,-1.40842 0.0435,-0.12167 0.0845,-0.24411 0.12292,-0.36747 0.0383,-0.12323 0.0741,-0.24707 0.10745,-0.37178 0.1,-0.37422 0.17705,-0.7544 0.23123,-1.13807 0.018,-0.12784 0.0334,-0.25577 0.0464,-0.38424 3.1048,-14.72907 -4.76322,-9.96307 19.54149,-10.29516 V 86.118202 Z"
         sodipodi:nodetypes="cccccccccccccccscccccscsccssssssssssssssccssssssccscssccccsssssccccsscsccssssscssscccccscsssccccssssscssssccssccsccsscccsscssssscccccsccccccccsscssccsssscscsssscccsscccccscsscccccccsccscccssccccsccccssssssccssscsssccssscsccscsssssscscsscccsccssccssssscsscsccccsscscsccccsscccccssccccccccccccccssccsscssscccsccsscscccc" />
    </clipPath>
  </defs>
  <sodipodi:namedview
     id="base"
     pagecolor="#ffffff"
     bordercolor="#666666"
     borderopacity="1.0"
     inkscape:pageopacity="0.0"
     inkscape:pageshadow="2"
     inkscape:zoom="1.4584527"
     inkscape:cx="172.88273"
     inkscape:cy="373.03402"
     inkscape:document-units="mm"
     inkscape:current-layer="layer1"
     inkscape:document-rotation="0"
     showgrid="false"
     inkscape:window-width="1815"
     inkscape:window-height="1438"
     inkscape:window-x="0"
     inkscape:window-y="0"
     inkscape:window-maximized="1"
     fit-margin-top="0"
     fit-margin-left="0"
     fit-margin-right="0"
     fit-margin-bottom="0" />
  <metadata
     id="metadata5">
    <rdf:RDF>
      <cc:Work
         rdf:about="">
        <dc:format>image/svg+xml</dc:format>
        <dc:type
           rdf:resource="http://purl.org/dc/dcmitype/StillImage" />
        <dc:title></dc:title>
      </cc:Work>
    </rdf:RDF>
  </metadata>
  <g
     inkscape:groupmode="layer"
     id="layer4"
     inkscape:label="Octopus Background"
     style="display:inline"
     transform="translate(-11.778091,-20.440287)">
    <path
       id="path1114"
       style="display:inline;fill:#d48c50;fill-opacity:1;fill-rule:evenodd;stroke:none;stroke-width:0.5;stroke-linecap:round;stroke-linejoin:miter;stroke-miterlimit:4;stroke-dasharray:none;stroke-opacity:1"
       d="m 77.118379,35.89972 c -0.159393,0.928868 0.284519,1.85976 1.000879,2.440203 2.266878,1.821211 5.761028,1.399389 7.817945,-0.556101 2.660685,-2.39604 4.513628,-6.309 3.228026,-9.863268 -0.962946,-2.448809 -3.543976,-3.726635 -5.892191,-4.535374 -4.023205,-1.299335 -8.837588,-1.383902 -12.390635,1.191358 -1.76235,1.193017 -2.854332,3.15867 -3.151823,5.245074 -0.862603,5.597863 -0.646586,11.755582 2.557058,16.629373 2.401564,3.427243 6.113744,5.787683 10.039524,7.113369 3.563525,1.366788 8.116596,0.887345 10.828389,-2.054984 3.051825,-4.171382 3.903917,-6.06738 8.079899,-9.100769 6.98725,-3.866649 18.25238,3.504915 25.50365,1.437796 4.68773,2.898719 9.32392,6.309994 14.90186,7.195355 10.53687,3.081877 21.83289,3.48633 31.91835,8.070746 6.55381,3.106857 11.14369,9.882746 11.3237,17.168058 0.22446,7.093468 -3.31401,14.685744 -9.73833,18.072302 -4.20667,2.013866 -9.01833,2.116184 -13.58847,2.429654 -6.33949,0.280769 -12.67526,-0.987754 -18.42231,-3.67561 -5.53349,-2.308948 -10.38344,-6.01828 -14.19148,-10.636837 -1.25113,-3.20291 1.86083,-3.62581 2.89506,-5.934937 2.16601,-2.380423 2.5373,-5.732043 1.96579,-8.784325 -0.30014,-2.413061 -1.30274,-5.104739 -2.99591,-6.982223 -1.58901,1.668896 -2.65749,2.591213 -3.43982,4.754841 -10.1872,27.368398 24.1954,42.075279 44.50142,48.626329 7.37773,1.80288 15.48826,2.81602 22.76903,0.0985 3.58403,-1.23708 7.26495,-4.74654 6.09391,-8.86864 -1.6254,-5.581542 -10.42981,-6.935873 -13.30831,-1.69413 -2.1368,3.89627 4.07883,6.18355 6.65784,3.98583 -3.05474,3.31814 -10.0637,1.04867 -8.60983,-4.59919 2.893,-6.129972 12.15779,-5.749473 16.07612,-0.90958 3.2194,4.39605 0.82509,11.1107 -3.54328,13.80292 -12.6034,6.65018 -29.81747,3.23586 -44.32585,-1.66386 -4.09759,-0.74203 -9.47429,-1.63284 -12.42935,2.05528 -2.86454,4.39618 -0.15143,9.7339 -0.89554,14.47195 -0.26052,8.61781 -8.31262,16.30516 -17.01036,15.60628 -4.92855,0.0192 -10.04777,-1.73553 -13.16091,-5.72807 -5.68704,-6.45667 -2.67418,-18.05878 5.52489,-20.78038 4.90528,-2.12437 11.01623,1.81266 11.49529,6.91897 0.19462,4.10944 -2.94611,7.55636 -6.01925,7.27867 4.75567,-1.31417 4.24526,-9.61184 -0.7038,-10.20546 -5.99223,-0.60046 -9.79272,7.73022 -6.00417,12.15399 3.16519,5.4188 11.94009,5.88501 15.55548,0.68792 3.21506,-3.8647 3.36468,-9.87434 0.26868,-13.85533 -6.77703,-11.37864 -18.59502,-18.52735 -30.404158,-23.771072 -9.43365,-3.816668 -20.856876,-4.432047 -29.737745,1.164842 -7.764074,4.39412 -15.308672,9.41452 -21.578961,15.80264 -4.071007,4.9245 -5.635625,12.3772 -2.798281,18.24395 2.013083,4.02426 7.065605,5.34287 11.140893,4.01698 5.315371,-1.00515 10.364211,-6.21424 9.214207,-11.86323 -1.353566,-7.61856 -10.909036,-3.68276 -14.298859,0.2592 1.840183,-4.91511 7.250544,-9.00969 12.62087,-8.06659 5.597452,1.72299 7.964881,8.58238 6.243022,13.85806 -2.253217,8.47847 -11.937239,12.66789 -20.104019,11.5783 -5.662173,-0.5198 -11.484472,-4.08611 -12.727636,-9.95469 -2.106091,-8.06081 0.820247,-16.39857 5.195775,-23.16547 4.32411,-7.2418 10.378925,-13.190406 15.418431,-19.890311 3.054249,-3.243199 2.591919,-9.319533 -2.65039,-9.820487 -8.901887,-2.033484 -18.174679,-0.149914 -27.11645,-2.023284 -5.30319,-1.06655 -11.73122,-2.566088 -14.371487,-7.843382 -1.870477,-4.89016 1.195356,-10.227126 4.733819,-13.519915 7.048636,-5.672871 17.150342,-7.01799 25.720678,-4.303293 3.863654,1.223832 8.05428,4.796053 6.940554,9.635562 -1.092569,4.747577 -5.185425,8.753156 -10.308753,7.627124 -2.202926,-0.214585 -4.35569,-1.039514 -6.09326,-2.418855 1.908119,0.764211 4.066302,0.840452 6.040689,0.290001 4.751728,-0.54011 8.791025,-6.258294 4.572815,-9.081137 -6.266027,-4.193251 -21.47108,-1.51747 -24.559499,5.678531 -1.208817,8.566173 12.449371,8.865265 25.646502,6.432807 13.197132,-2.432459 25.13735,-6.420538 23.747295,-13.099485 -4.649844,-12.678104 -5.58687,-24.422111 -3.600711,-30.240195 0.71379,-2.173065 3.267322,-5.56662 5.431263,-6.505449 4.394117,-2.074485 11.577906,-1.950949 15.774122,0.20517 2.653844,1.203646 4.893525,3.774585 5.257369,6.819066 0.488272,4.08564 -1.7093,8.535287 -5.086262,10.588463 -2.629731,1.69752 -6.509451,1.748976 -8.672455,-0.629852 -0.682625,-0.756995 -1.000025,-1.836554 -0.652528,-2.798862"
       sodipodi:nodetypes="ccccccccccccccccccccccccccccccccccccccccccccccccccccccccccccsscccscsccccsccc" />
  </g>
  <g
     inkscape:label="Octopus"
     inkscape:groupmode="layer"
     id="layer1"
     style="display:inline"
     transform="translate(-11.778091,-20.440287)">
    <path
       style="fill:#3f5cff;fill-opacity:1;fill-rule:evenodd;stroke:#000000;stroke-width:1.5;stroke-linecap:round;stroke-linejoin:miter;stroke-miterlimit:4;stroke-dasharray:none;stroke-opacity:1"
       d="m 123.13891,50.924374 c -0.66364,0.238436 -1.40898,0.675123 -1.81974,1.2033 -0.41076,0.528177 -0.4858,1.14494 -0.0414,1.840504 0.44437,0.695563 1.4048,1.469889 2.35407,1.560708 0.94927,0.09082 1.88968,-0.498925 2.64955,-1.13109 0.75986,-0.632165 1.34013,-1.307455 1.09147,-1.946077 -0.24867,-0.638621 -1.32915,-1.241873 -2.15957,-1.524085 -0.83043,-0.282212 -1.4107,-0.241695 -2.07435,-0.0033 z"
       id="path14"
       inkscape:path-effect="#path-effect16"
       inkscape:original-d="m 123.21973,50.726635 c -0.74253,0.439475 -1.48787,0.876158 -2.23599,1.310047 -0.0722,0.61955 -0.14727,1.236309 -0.22511,1.850272 0.96322,0.777114 1.92365,1.55144 2.88128,2.322969 0.94322,-0.586951 1.88363,-1.176699 2.82125,-1.769238 0.58305,-0.672489 1.16333,-1.347768 1.74078,-2.025845 -1.07783,-0.601647 -2.15831,-1.204901 -3.24144,-1.809754 -0.57746,0.04331 -1.15773,0.08382 -1.74077,0.121549 z"
       sodipodi:nodetypes="cccccccc" />
    <path
       id="path18"
       style="fill:none;fill-rule:evenodd;stroke:#000000;stroke-width:1.5;stroke-linecap:round;stroke-linejoin:miter;stroke-miterlimit:4;stroke-dasharray:none;stroke-opacity:1"
       d="m 116.61769,50.562764 c 1.94115,-2.941847 4.40606,-6.139395 8.12138,-6.717187 4.68773,2.898719 9.32392,6.309994 14.90186,7.195355 10.53687,3.081877 21.83289,3.48633 31.91835,8.070746 6.55381,3.106857 11.14369,9.882746 11.3237,17.168058 0.22446,7.093468 -3.31401,14.685744 -9.73833,18.072302 -4.20667,2.013866 -9.01833,2.116184 -13.58847,2.429654 -6.33949,0.280769 -12.67526,-0.987754 -18.42231,-3.67561 -5.53349,-2.308948 -10.38344,-6.01828 -14.19148,-10.636837 -1.25113,-3.20291 1.86083,-3.62581 2.89506,-5.934937 2.16601,-2.380423 2.5373,-5.732043 1.96579,-8.784325 -0.30014,-2.413061 -1.30274,-5.104739 -2.96558,-6.941549"
       sodipodi:nodetypes="cccccccccccc" />
    <path
       id="path22"
       style="fill:none;fill-rule:evenodd;stroke:#000000;stroke-width:1.5;stroke-linecap:round;stroke-linejoin:miter;stroke-miterlimit:4;stroke-dasharray:none;stroke-opacity:1"
       d="m 132.47159,54.055922 c -0.17401,4.929545 -5.53942,7.139423 -7.10408,11.466679 -10.1872,27.368398 24.1954,42.075279 44.50142,48.626329 7.37773,1.80288 15.48826,2.81602 22.76903,0.0985 3.58403,-1.23708 7.26495,-4.74654 6.09391,-8.86864 -1.6254,-5.581542 -10.42981,-6.935873 -13.30831,-1.69413 -2.1368,3.89627 4.07883,6.18355 6.65784,3.98583"
       sodipodi:nodetypes="ccccccc" />
    <path
       id="path30"
       style="fill:none;fill-rule:evenodd;stroke:#000000;stroke-width:1.5;stroke-linecap:round;stroke-linejoin:miter;stroke-miterlimit:4;stroke-dasharray:none;stroke-opacity:1"
       d="m 94.666119,64.398197 c -11.794984,15.272105 -28.87387,25.083158 -42.092817,38.943123 -5.947893,5.75226 -12.829064,13.03739 -13.665684,21.66328 -0.194143,4.89012 -0.132179,10.25168 3.975596,13.811 8.638006,6.15186 23.10129,-0.098 23.848478,-9.03032 0.639461,-4.05548 -1.677248,-9.3783 -6.284155,-9.53487 -4.379078,0.006 -8.288221,2.97937 -10.610919,6.5075"
       sodipodi:nodetypes="ccccccc" />
    <path
       id="path38"
       style="fill:none;fill-rule:evenodd;stroke:#000000;stroke-width:1.5;stroke-linecap:round;stroke-linejoin:miter;stroke-miterlimit:4;stroke-dasharray:none;stroke-opacity:1"
       d="m 91.049159,51.454527 c -2.605427,2.996352 -7.158498,3.475795 -10.722023,2.109007 -3.92578,-1.325686 -7.63796,-3.686126 -10.039524,-7.113369 -3.203644,-4.873791 -3.419661,-11.03151 -2.557058,-16.629373 0.297491,-2.086404 1.389473,-4.052057 3.151823,-5.245074 3.553047,-2.57526 8.36743,-2.490693 12.390635,-1.191358 2.348215,0.808739 4.929245,2.086565 5.892191,4.535374 1.285602,3.554268 -0.567341,7.467228 -3.228026,9.863268 -2.056917,1.95549 -5.551067,2.377312 -7.817945,0.556101 C 77.402872,37.75866 76.95896,36.827768 77.118353,35.8989" />
    <path
       id="path42"
       style="fill:none;fill-rule:evenodd;stroke:#000000;stroke-width:1.5;stroke-linecap:round;stroke-linejoin:miter;stroke-miterlimit:4;stroke-dasharray:none;stroke-opacity:1"
       d="M 124.73907,43.845577 C 117.4878,45.912696 106.22267,38.541132 99.235424,42.407781 90.883461,48.47456 87.849244,60.884016 78.317743,65.608413 69.056204,71.618362 10.534952,86.763647 16.053837,65.129071 18.772333,54.472299 40.236991,52.442365 46.495718,58.418206 50.658667,62.392995 45.484872,69.972091 40.064906,69.784538 37.758425,70.0723 35.350424,69.626445 33.337774,68.450679"
       sodipodi:nodetypes="cccsscc" />
    <path
       id="path99"
       style="fill:none;fill-rule:evenodd;stroke:#000000;stroke-width:1.5;stroke-linecap:round;stroke-linejoin:miter;stroke-miterlimit:4;stroke-dasharray:none;stroke-opacity:1"
       d="m 110.20341,71.289528 c -11.121819,25.953357 15.58961,33.683252 21.91831,50.929922 3.01979,7.13141 0.56216,16.7181 -6.54578,20.40899 -9.14648,2.98085 -19.94746,-4.90102 -17.44859,-12.74293 2.28404,-8.77615 12.70278,-10.99579 15.29718,-3.14568 1.14216,3.27527 -0.78337,6.25429 -4.2412,7.38365"
       sodipodi:nodetypes="cccccc" />
  </g>
  <g
     inkscape:groupmode="layer"
     id="layer3"
     inkscape:label="Letter"
     style="display:inline"
     transform="translate(-11.778091,-20.440287)">
    <g
       id="g1171"
       clip-path="url(#clipPath1191)"
       mask="none"
       transform="matrix(1.2023667,0,0,1.2023667,-17.792234,-24.190812)">
      <g
         id="g1071"
         transform="rotate(6.330298,73.66595,125.03293)">
        <path
           style="fill:#ffffff;fill-opacity:1;fill-rule:evenodd;stroke:#000000;stroke-width:0.831693;stroke-linecap:butt;stroke-linejoin:miter;stroke-miterlimit:4;stroke-dasharray:none;stroke-opacity:1"
           d="m 52.539936,97.657302 -1.576173,38.208098 71.585467,2.40842 0.88448,-38.687748 z"
           id="path155"
           sodipodi:nodetypes="ccccc" />
        <path
           id="path980"
           style="fill:none;fill-rule:evenodd;stroke:#000000;stroke-width:0.831693;stroke-linecap:butt;stroke-linejoin:miter;stroke-miterlimit:4;stroke-dasharray:none;stroke-opacity:1"
           d="m 52.335829,103.35178 c 10.094176,4.23609 19.993835,8.95493 30.233895,12.83139 3.434878,1.17874 7.171138,1.00829 10.590189,-0.12609 10.932507,-3.35879 20.264327,-6.77868 30.092367,-10.18463"
           sodipodi:nodetypes="cccc" />
      </g>
      <g
         id="g1067"
         transform="rotate(6.330298,73.66595,125.03293)">
        <g
           id="g1003">
          <g
             id="g998">
            <g
               id="g994">
              <path
                 id="circle990"
                 style="opacity:1;fill:#ff6d6d;fill-opacity:1;fill-rule:nonzero;stroke:#d81111;stroke-width:0.5;stroke-linecap:round;stroke-linejoin:round;stroke-miterlimit:4;stroke-dasharray:none;stroke-dashoffset:0;stroke-opacity:1"
                 d="m 107.907,117.12723 c 0,1.47456 0.52158,3.38238 -0.0188,4.66009 -0.54043,1.2777 -2.32617,1.763 -3.2925,2.72933 -0.96632,0.96632 -1.65415,2.71928 -2.93186,3.25971 -1.2777,0.54042 -2.992005,-0.19929 -4.466566,-0.19929 -1.47456,0 -3.300051,0.65589 -4.577754,0.11546 -1.277703,-0.54042 -1.782225,-2.20954 -2.748549,-3.17587 -0.966324,-0.96632 -2.830203,-1.51653 -3.370626,-2.79424 -0.540422,-1.2777 0.173489,-3.08275 0.173489,-4.55731 0,-1.47456 -0.755988,-3.21739 -0.215569,-4.4951 0.540422,-1.2777 2.251037,-1.86308 3.21736,-2.82941 0.966324,-0.96632 1.200377,-2.64625 2.47808,-3.18668 1.277703,-0.54042 3.578019,0.005 5.052579,0.005 1.474561,0 3.206886,-0.545 4.484586,-0.005 1.27771,0.54043 1.95954,2.11218 2.92586,3.0785 0.96633,0.96633 2.76409,1.70587 3.30451,2.98357 0.54043,1.27771 -0.0142,2.9367 -0.0142,4.41126 z"
                 sodipodi:nodetypes="ssssssssssssssssss" />
            </g>
          </g>
        </g>
        <circle
           style="opacity:1;fill:none;fill-opacity:1;fill-rule:nonzero;stroke:#af0000;stroke-width:1.565;stroke-linecap:round;stroke-linejoin:round;stroke-miterlimit:4;stroke-dasharray:none;stroke-dashoffset:0;stroke-opacity:1"
           id="path988"
           cx="97.227287"
           cy="117.12723"
           r="7.4951949" />
      </g>
    </g>
  </g>
</svg>
